…
## BARIS\_extract()

The `BARIS_extract()` function allows you to extract directly to your R
session the needed resource. You have to specify the id of the resource
and its format. Currently, only theses formats are supported: json, csv,
xls, xlsx, xml, geojson and shp, nevertheless you can always rely on the
url of the resource to upload manually each resource. As an example, let
us extract the *MARSEILLE\_MONUMENTS\_HISTORIQUES\_2018.csv* file.

``` r

BARIS_extract(resourceId = "59ea7bba-f38a-4d75-b85f-2d1955050e53", format = "csv")
#> # A tibble: 80 x 10
#>    n_base_merimee date_de_protect~ denomination adresse code_postal
#>    <chr>          <chr>            <chr>        <chr>         <int>
#>  1 PA00081336     Classement : li~ Ancienne ég~ /             13002
#>  2 PA00081340     Classement: 13/~ Eglise Sain~ Esplan~       13002
#>  3 PA00081331     Classement: 29/~ Chapelle et~ 2, Rue~       13002
#>  4 PA00081344     Classement: 16/~ Fort Saint-~ ""            13002
#>  5 PA00081325     Inscription : 2~ Les deux bâ~ Quai d~       13002
#>  6 PA00081334     Inscription : 0~ Clocher des~ Montée~       13002
#>  7 PA00081348     Classement: 12/~ Hôtel Davie~ Place ~       13002
#>  8 PA00081363     Classement: 02/~ Maison dite~ 27, Gr~       13002
#>  9 PA00081349     Inscription : 1~ Hôtel-Dieu-~ 6, Pla~       13002
#> 10 PA00081354     Classement: 30/~ Hôtel de Vi~ Quai d~       13002
#> # ... with 70 more rows, and 5 more variables:
#> #   proprietaire_du_monument <chr>, epoque_de_construction <chr>,
#> #   date_de_construction <chr>, longitude <dbl>, latitude <dbl>
```
…
